[
  {
    "pk": 1, 
    "model": "genetic.technique", 
    "fields": {
      "name": "MLPA"
    }
  },
  {
    "pk": 2, 
    "model": "genetic.technique", 
    "fields": {
      "name": "Genomic DNA sequencing"
    }
  },
  {
    "pk": 3, 
    "model": "genetic.technique", 
    "fields": {
      "name": "cDNA sequencing"
    }
  },
  {
    "pk": 4, 
    "model": "genetic.technique", 
    "fields": {
      "name": "Array"
    }
  }
]
